Logistic Linear Mixed Effects Model • cytoeffect
…
Transform counts.

df_samples %<>% mutate_at(colData(se_aghaeepour2017immune)$protein_name, 
                          function(x) asinh(x/5))

Fit Model

Cells count of subsets:

df_samples %>% 
  group_by(term,celltype,donor) %>% 
  tally %>% 
  arrange(n)

## # A tibble: 379 x 4
## # Groups:   term, celltype [24]
##    term          celltype donor       n
##    <fct>         <chr>    <chr>   <int>
##  1 1st trimester intMC    PTLG001     1
##  2 3rd trimester gdT      PTLG018     1
##  3 3rd trimester gdT      PTLG019     1
##  4 3rd trimester gdT      PTLG020     1
##  5 3rd trimester intMC    PTLG009     1
##  6 3rd trimester ncMC     PTLG018     1
##  7 3rd trimester intMC    PTLG018     3
##  8 3rd trimester ncMC     PTLG009     3
##  9 1st trimester gdT      PTLG020     4
## 10 3rd trimester intMC    PTLG004     5
## # ... with 369 more rows

df_samples %>% 
  group_by(term,celltype,donor) %>% 
  tally %>% 
  arrange(desc(n))

## # A tibble: 379 x 4
## # Groups:   term, celltype [24]
##    term          celltype   donor       n
##    <fct>         <chr>      <chr>   <int>
##  1 1st trimester CD4+Tmem   PTLG009 35076
##  2 3rd trimester CD4+Tmem   PTLG007 34303
##  3 1st trimester CD4+Tmem   PTLG003 30796
##  4 3rd trimester CD4+Tmem   PTLG009 29886
##  5 1st trimester CD4+Tmem   PTLG007 28958
##  6 1st trimester CD4+Tnaive PTLG022 27953
##  7 1st trimester CD4+Tmem   PTLG024 27592
##  8 3rd trimester CD4+Tnaive PTLG005 27318
##  9 3rd trimester CD4+Tnaive PTLG022 25901
## 10 3rd trimester CD4+Tnaive PTLG001 24423
## # ... with 369 more rows
…
Subset cells count.

df_samples_subset %>% group_by(term,celltype,donor) %>% tally %>% 
  arrange(n)

## # A tibble: 32 x 4
## # Groups:   term, celltype [2]
##    term          celltype donor       n
##    <fct>         <chr>    <chr>   <int>
##  1 3rd trimester NK       PTLG024  2380
##  2 3rd trimester NK       PTLG001  3125
##  3 3rd trimester NK       PTLG020  3230
##  4 1st trimester NK       PTLG020  3412
##  5 1st trimester NK       PTLG001  3474
##  6 3rd trimester NK       PTLG009  3764
##  7 1st trimester NK       PTLG018  4083
##  8 1st trimester NK       PTLG024  4100
##  9 1st trimester NK       PTLG010  4273
## 10 3rd trimester NK       PTLG019  4542
## # ... with 22 more rows

df_samples_subset %>% group_by(term,celltype,donor) %>% tally %>% 
  arrange(desc(n))

## # A tibble: 32 x 4
## # Groups:   term, celltype [2]
##    term          celltype donor       n
##    <fct>         <chr>    <chr>   <int>
##  1 1st trimester NK       PTLG008 13395
##  2 1st trimester NK       PTLG022  8222
##  3 1st trimester NK       PTLG003  8087
##  4 3rd trimester NK       PTLG008  7953
##  5 3rd trimester NK       PTLG018  7620
##  6 1st trimester NK       PTLG029  7211
##  7 1st trimester NK       PTLG019  6671
##  8 1st trimester NK       PTLG012  6624
##  9 3rd trimester NK       PTLG004  6501
## 10 3rd trimester NK       PTLG002  6120
## # ... with 22 more rows
…
Some more MCMC diagnostics. According to empirically findings, Rhat > 1.1 is usually indicative of problems in the fit.

pars = c("beta","sigma_donor","L_donor","z_donor")
tb = summary(obj$fit_mcmc, 
             pars = pars)$summary %>% 
  as.tibble(rownames = "pars", .before = 1) %>% 
  select(pars, n_eff, Rhat)
tb %<>% na.omit() # Stan fills upper triangle with zeros
tb %>% arrange(n_eff)

## # A tibble: 263 x 3
##    pars          n_eff  Rhat
##    <chr>         <dbl> <dbl>
##  1 beta[1]        256.  1.02
##  2 z_donor[7,1]   259.  1.02
##  3 z_donor[11,1]  266.  1.02
##  4 z_donor[14,1]  270.  1.02
##  5 z_donor[12,1]  272.  1.02
##  6 z_donor[16,1]  273.  1.02
##  7 z_donor[3,1]   274.  1.02
##  8 z_donor[8,1]   278.  1.02
##  9 z_donor[9,1]   281.  1.02
## 10 z_donor[13,1]  287.  1.02
## # ... with 253 more rows

tb %>% arrange(desc(Rhat))

## # A tibble: 263 x 3
##    pars          n_eff  Rhat
##    <chr>         <dbl> <dbl>
##  1 z_donor[7,1]   259.  1.02
##  2 z_donor[8,1]   278.  1.02
##  3 beta[1]        256.  1.02
##  4 z_donor[16,1]  273.  1.02
##  5 z_donor[12,1]  272.  1.02
##  6 z_donor[11,1]  266.  1.02
##  7 z_donor[14,1]  270.  1.02
##  8 z_donor[13,1]  287.  1.02
##  9 z_donor[12,2]  323.  1.02
## 10 z_donor[3,1]   274.  1.02
## # ... with 253 more rows
…
