cytoeffect Workflow • cytoeffect
…
Simulate dataset.

set.seed(1)
df = simulate_data()
str(df)
#> tibble [800 × 7] (S3: tbl_df/tbl/data.frame)
#>  $ donor    : chr [1:800] "pid01" "pid01" "pid01" "pid01" ...
#>  $ condition: Factor w/ 2 levels "control","treatment": 2 2 2 2 2 2 2 2 2 2 ...
#>  $ m01      : num [1:800] 54 11 17 26 73 49 44 100 235 32 ...
#>  $ m02      : num [1:800] 19 0 11 21 32 3 7 78 52 32 ...
#>  $ m03      : num [1:800] 7 0 11 29 4 16 7 1 4 8 ...
#>  $ m04      : num [1:800] 2 1 0 50 3 0 0 6 4 0 ...
#>  $ m05      : num [1:800] 10 0 3 0 7 4 2 1 4 11 ...
df
#> # A tibble: 800 × 7
#>    donor condition   m01   m02   m03   m04   m05
#>    <chr> <fct>     <dbl> <dbl> <dbl> <dbl> <dbl>
#>  1 pid01 treatment    54    19     7     2    10
#>  2 pid01 treatment    11     0     0     1     0
#>  3 pid01 treatment    17    11    11     0     3
#>  4 pid01 treatment    26    21    29    50     0
#>  5 pid01 treatment    73    32     4     3     7
#>  6 pid01 treatment    49     3    16     0     4
#>  7 pid01 treatment    44     7     7     0     2
#>  8 pid01 treatment   100    78     1     6     1
#>  9 pid01 treatment   235    52     4     4     4
#> 10 pid01 treatment    32    32     8     0    11
#> # … with 790 more rows
…
