Posterior predictive of Poisson log-normal mixed model — posterior_predictive_log_lambda • cytoeffect
…
#> Chain 1: 
#> Warning: There were 4 divergent transitions after warmup. Increasing adapt_delta above 0.8 may help. See
#> http://mc-stan.org/misc/warnings.html#divergent-transitions-after-warmup
#> Warning: Examine the pairs() plot to diagnose sampling problems
#> Warning: The largest R-hat is NA, indicating chains have not mixed.
#> Running the chains for more iterations may help. See
#> http://mc-stan.org/misc/warnings.html#r-hat
#> Warning: Bulk Effective Samples Size (ESS) is too low, indicating posterior means and medians may be unreliable.
#> Running the chains for more iterations may help. See
#> http://mc-stan.org/misc/warnings.html#bulk-ess
#> Warning: Tail Effective Samples Size (ESS) is too low, indicating posterior variances and tail quantiles may be unreliable.
#> Running the chains for more iterations may help. See
#> http://mc-stan.org/misc/warnings.html#tail-ess
posterior_predictive_log_lambda(fit, k = 1)
#> # A tibble: 80 x 8
#>       m01   m02    m03   m04    m05 condition donor     k
#>     <dbl> <dbl>  <dbl> <dbl>  <dbl> <fct>     <chr> <dbl>
#>  1 0.372  0.943  1.49  0.908  1.72  control   pid01     1
#>  2 3.53   0.861  0     0      0.977 control   pid01     1
#>  3 0      3.57   0.579 2.69  -0.173 control   pid01     1
#>  4 1.86   2.87   1.32  3.39  -0.284 control   pid01     1
#>  5 0      3.28   2.60  2.68   1.33  control   pid01     1
#>  6 0.881  2.28   0     3.34  -0.257 control   pid01     1
#>  7 3.72   2.40   2.50  2.31   0.684 control   pid01     1
#>  8 1.53   2.10   1.25  1.81   1.10  control   pid01     1
#>  9 0.0344 2.02  -0.174 0.653  0.867 control   pid01     1
#> 10 0      2.26   2.65  2.40   0.702 control   pid01     1
#> # … with 70 more rows
…
